^C:\USERS\GORMLEYJO\SOURCE\REPOS\PROJECT2\PROJECT2\SOURCE.CPP
/c /ZI /nologo /W3 /WX- /diagnostics:classic /sdl /Od /Oy- /D _CRT_SECURE_NO_WARNINGS /D _MBCS /Gm- /EHsc /RTC1 /MDd /GS /fp:precise /permissive- /Zc:wchar_t /Zc:forScope /Zc:inline /Fo"DEBUG\\" /Fd"DEBUG\VC141.PDB" /Gd /TP /analyze- /FC C:\USERS\GORMLEYJO\SOURCE\REPOS\PROJECT2\PROJECT2\SOURCE.CPP
^C:\USERS\GORMLEYJO\SOURCE\REPOS\PROJECT2\PROJECT2\LOOPKEYS.CPP
/c /ZI /nologo /W3 /WX- /diagnostics:classic /sdl /Od /Oy- /D _CRT_SECURE_NO_WARNINGS /D _MBCS /Gm- /EHsc /RTC1 /MDd /GS /fp:precise /permissive- /Zc:wchar_t /Zc:forScope /Zc:inline /Fo"DEBUG\\" /Fd"DEBUG\VC141.PDB" /Gd /TP /analyze- /FC C:\USERS\GORMLEYJO\SOURCE\REPOS\PROJECT2\PROJECT2\LOOPKEYS.CPP
^C:\USERS\GORMLEYJO\SOURCE\REPOS\PROJECT2\PROJECT2\LARGEPRIME.CPP
/c /ZI /nologo /W3 /WX- /diagnostics:classic /sdl /Od /Oy- /D _CRT_SECURE_NO_WARNINGS /D _MBCS /Gm- /EHsc /RTC1 /MDd /GS /fp:precise /permissive- /Zc:wchar_t /Zc:forScope /Zc:inline /Fo"DEBUG\\" /Fd"DEBUG\VC141.PDB" /Gd /TP /analyze- /FC C:\USERS\GORMLEYJO\SOURCE\REPOS\PROJECT2\PROJECT2\LARGEPRIME.CPP
^C:\USERS\GORMLEYJO\SOURCE\REPOS\PROJECT2\PROJECT2\MAIN.CPP
/c /ZI /nologo /W3 /WX- /diagnostics:classic /sdl /Od /Oy- /D _CRT_SECURE_NO_WARNINGS /D _MBCS /Gm- /EHsc /RTC1 /MDd /GS /fp:precise /permissive- /Zc:wchar_t /Zc:forScope /Zc:inline /Fo"DEBUG\\" /Fd"DEBUG\VC141.PDB" /Gd /TP /analyze- /FC C:\USERS\GORMLEYJO\SOURCE\REPOS\PROJECT2\PROJECT2\MAIN.CPP
